Yo Amo los Zapatos -> 41,061,318
Miltoner -> 24,476,610
Cultura Colectiva -> 23,505,768
WEREVERTUMORRO -> 22,639,766
La Arrolladora Banda El Limón -> 20,405,763
Platano -> 20,253,915
Wereverwero -> 18,274,257
Thalia -> 18,104,050
Dj Zant -> 17,761,478
Marco Antonio Solis -> 16,705,874
